{
  "count": 683,
  "next": "http://marsweather.ingenology.com/v1/archive/?page=2",
  "previous": null,
  "results": [
    {
      "terrestrial_date": "2016-04-20",
      "sol": 1317,
      "ls": 139,
      "min_temp": -80,
      "min_temp_fahrenheit": -112,
      "max_temp": -15,
      "max_temp_fahrenheit": 5,
      "pressure": 743,
      "pressure_string": "Lower",
      "abs_humidity": null,
      "wind_speed": null,
      "wind_direction": "--",
      "atmo_opacity": "Sunny",
      "season": "Month 5",
      "sunrise": "2016-04-20T10:35:00Z",
      "sunset": "2016-04-20T22:24:00Z"
    },
    {
      "terrestrial_date": "2016-04-19",
      "sol": 1316,
      "ls": 139,
      "min_temp": -80,
      "min_temp_fahrenheit": -112,
      "max_temp": -20,
      "max_temp_fahrenheit": -4,
      "pressure": 744,
      "pressure_string": "Lower",
      "abs_humidity": null,
      "wind_speed": null,
      "wind_direction": "--",
      "atmo_opacity": "Sunny",
      "season": "Month 5",
      "sunrise": "2016-04-19T10:35:00Z",
      "sunset": "2016-04-19T22:24:00Z"
    },
    {
      "terrestrial_date": "2016-04-17",
      "sol": 1314,
      "ls": 138,
      "min_temp": -78,
      "min_temp_fahrenheit": -108.4,
      "max_temp": -14,
      "max_temp_fahrenheit": 6.8,
      "pressure": 744,
      "pressure_string": "Lower",
      "abs_humidity": null,
      "wind_speed": null,
      "wind_direction": "--",
      "atmo_opacity": "Sunny",
      "season": "Month 5",
      "sunrise": "2016-04-17T10:36:00Z",
      "sunset": "2016-04-17T22:25:00Z"
    },
    {
      "terrestrial_date": "2016-04-14",
      "sol": 1311,
      "ls": 136,
      "min_temp": -78,
      "min_temp_fahrenheit": -108.4,
      "max_temp": -11,
      "max_temp_fahrenheit": 12.2,
      "pressure": 745,
      "pressure_string": "Lower",
      "abs_humidity": null,
      "wind_speed": null,
      "wind_direction": "--",
      "atmo_opacity": "Sunny",
      "season": "Month 5",
      "sunrise": "2016-04-14T10:36:00Z",
      "sunset": "2016-04-14T22:25:00Z"
    },
    {
      "terrestrial_date": "2016-04-12",
      "sol": 1309,
      "ls": 135,
      "min_temp": -81,
      "min_temp_fahrenheit": -113.8,
      "max_temp": -19,
      "max_temp_fahrenheit": -2.2,
      "pressure": 747,
      "pressure_string": "Lower",
      "abs_humidity": null,
      "wind_speed": null,
      "wind_direction": "--",
      "atmo_opacity": "Sunny",
      "season": "Month 5",
      "sunrise": "2016-04-12T10:37:00Z",
      "sunset": "2016-04-12T22:25:00Z"
    },
    {
      "terrestrial_date": "2016-04-11",
      "sol": 1308,
      "ls": 135,
      "min_temp": -81,
      "min_temp_fahrenheit": -113.8,
      "max_temp": -23,
      "max_temp_fahrenheit": -9.4,
      "pressure": 748,
      "pressure_string": "Lower",
      "abs_humidity": null,
      "wind_speed": null,
      "wind_direction": "--",
      "atmo_opacity": "Sunny",
      "season": "Month 5",
      "sunrise": "2016-04-11T10:37:00Z",
      "sunset": "2016-04-11T22:25:00Z"
    },
    {
      "terrestrial_date": "2016-04-08",
      "sol": 1306,
      "ls": 134,
      "min_temp": -79,
      "min_temp_fahrenheit": -110.2,
      "max_temp": -23,
      "max_temp_fahrenheit": -9.4,
      "pressure": 748,
      "pressure_string": "Lower",
      "abs_humidity": null,
      "wind_speed": null,
      "wind_direction": "--",
      "atmo_opacity": "Sunny",
      "season": "Month 5",
      "sunrise": "2016-04-08T10:37:00Z",
      "sunset": "2016-04-08T22:25:00Z"
    },
    {
      "terrestrial_date": "2016-04-06",
      "sol": 1304,
      "ls": 133,
      "min_temp": -80,
      "min_temp_fahrenheit": -112,
      "max_temp": -22,
      "max_temp_fahrenheit": -7.6,
      "pressure": 750,
      "pressure_string": "Lower",
      "abs_humidity": null,
      "wind_speed": null,
      "wind_direction": "--",
      "atmo_opacity": "Sunny",
      "season": "Month 5",
      "sunrise": "2016-04-06T10:38:00Z",
      "sunset": "2016-04-06T22:26:00Z"
    },
    {
      "terrestrial_date": "2016-04-04",
      "sol": 1302,
      "ls": 132,
      "min_temp": -80,
      "min_temp_fahrenheit": -112,
      "max_temp": -24,
      "max_temp_fahrenheit": -11.2,
      "pressure": 751,
      "pressure_string": "Lower",
      "abs_humidity": null,
      "wind_speed": null,
      "wind_direction": "--",
      "atmo_opacity": "Sunny",
      "season": "Month 5",
      "sunrise": "2016-04-04T10:38:00Z",
      "sunset": "2016-04-04T22:26:00Z"
    },
    {
      "terrestrial_date": "2016-04-02",
      "sol": 1300,
      "ls": 131,
      "min_temp": -79,
      "min_temp_fahrenheit": -110.2,
      "max_temp": -16,
      "max_temp_fahrenheit": 3.2,
      "pressure": 945,
      "pressure_string": "Higher",
      "abs_humidity": null,
      "wind_speed": null,
      "wind_direction": "--",
      "atmo_opacity": "Sunny",
      "season": "Month 5",
      "sunrise": "2016-04-02T10:39:00Z",
      "sunset": "2016-04-02T22:26:00Z"
    }
  ]
}